{
  "type": "Program",
  "body": [
    {
      "type": "ImportDeclaration",
      "specifiers": [
        {
          "type": "ImportSpecifier",
          "local": {
            "type": "Identifier",
            "name": "Dispatcher",
            "range": [
              8,
              18
            ],
            "loc": {
              "start": {
                "line": 1,
                "column": 8
              },
              "end": {
                "line": 1,
                "column": 18
              }
            }
          },
          "imported": {
            "type": "Identifier",
            "name": "Dispatcher",
            "range": [
              8,
              18
            ],
            "loc": {
              "start": {
                "line": 1,
                "column": 8
              },
              "end": {
                "line": 1,
                "column": 18
              }
            }
          },
          "range": [
            8,
            18
          ],
          "loc": {
            "start": {
              "line": 1,
              "column": 8
            },
            "end": {
              "line": 1,
              "column": 18
            }
          }
        }
      ],
      "source": {
        "type": "Literal",
        "value": "flux",
        "raw": "'flux'",
        "range": [
          25,
          31
        ],
        "loc": {
          "start": {
            "line": 1,
            "column": 25
          },
          "end": {
            "line": 1,
            "column": 31
          }
        }
      },
      "range": [
        0,
        32
      ],
      "loc": {
        "start": {
          "line": 1,
          "column": 0
        },
        "end": {
          "line": 1,
          "column": 32
        }
      },
      "trailingComments": [
        {
          "type": "Block",
          "value": "*\r\n * Custom app Dispatcher inherited from flux dispatcher.\r\n ",
          "range": [
            36,
            102
          ],
          "loc": {
            "start": {
              "line": 3,
              "column": 0
            },
            "end": {
              "line": 5,
              "column": 3
            }
          }
        }
      ]
    },
    {
      "type": "Identifier",
      "id": {
        "type": "Identifier",
        "name": "AppDispatcher",
        "range": [
          110,
          123
        ],
        "loc": {
          "start": {
            "line": 6,
            "column": 6
          },
          "end": {
            "line": 6,
            "column": 19
          }
        }
      },
      "superClass": {
        "type": "Identifier",
        "name": "Dispatcher",
        "range": [
          132,
          142
        ],
        "loc": {
          "start": {
            "line": 6,
            "column": 28
          },
          "end": {
            "line": 6,
            "column": 38
          }
        }
      },
      "body": {
        "type": "ClassBody",
        "body": [
          {
            "type": "MethodDefinition",
            "key": {
              "type": "Identifier",
              "name": "dispatch",
              "range": [
                288,
                296
              ],
              "loc": {
                "start": {
                  "line": 11,
                  "column": 4
                },
                "end": {
                  "line": 11,
                  "column": 12
                }
              }
            },
            "value": {
              "type": "FunctionExpression",
              "id": null,
              "params": [
                {
                  "type": "AssignmentPattern",
                  "left": {
                    "type": "Identifier",
                    "name": "action",
                    "range": [
                      297,
                      303
                    ],
                    "loc": {
                      "start": {
                        "line": 11,
                        "column": 13
                      },
                      "end": {
                        "line": 11,
                        "column": 19
                      }
                    }
                  },
                  "right": {
                    "type": "ObjectExpression",
                    "properties": [],
                    "range": [
                      306,
                      308
                    ],
                    "loc": {
                      "start": {
                        "line": 11,
                        "column": 22
                      },
                      "end": {
                        "line": 11,
                        "column": 24
                      }
                    }
                  },
                  "range": [
                    297,
                    308
                  ],
                  "loc": {
                    "start": {
                      "line": 11,
                      "column": 13
                    },
                    "end": {
                      "line": 11,
                      "column": 24
                    }
                  }
                }
              ],
              "body": {
                "type": "BlockStatement",
                "body": [
                  {
                    "type": "ExpressionStatement",
                    "expression": {
                      "type": "CallExpression",
                      "callee": {
                        "type": "MemberExpression",
                        "computed": false,
                        "object": {
                          "type": "Identifier",
                          "name": "console",
                          "range": [
                            320,
                            327
                          ],
                          "loc": {
                            "start": {
                              "line": 12,
                              "column": 8
                            },
                            "end": {
                              "line": 12,
                              "column": 15
                            }
                          }
                        },
                        "property": {
                          "type": "Identifier",
                          "name": "log",
                          "range": [
                            328,
                            331
                          ],
                          "loc": {
                            "start": {
                              "line": 12,
                              "column": 16
                            },
                            "end": {
                              "line": 12,
                              "column": 19
                            }
                          }
                        },
                        "range": [
                          320,
                          331
                        ],
                        "loc": {
                          "start": {
                            "line": 12,
                            "column": 8
                          },
                          "end": {
                            "line": 12,
                            "column": 19
                          }
                        }
                      },
                      "arguments": [
                        {
                          "type": "Literal",
                          "value": "Dispatched",
                          "raw": "\"Dispatched\"",
                          "range": [
                            332,
                            344
                          ],
                          "loc": {
                            "start": {
                              "line": 12,
                              "column": 20
                            },
                            "end": {
                              "line": 12,
                              "column": 32
                            }
                          }
                        },
                        {
                          "type": "Identifier",
                          "name": "action",
                          "range": [
                            346,
                            352
                          ],
                          "loc": {
                            "start": {
                              "line": 12,
                              "column": 34
                            },
                            "end": {
                              "line": 12,
                              "column": 40
                            }
                          }
                        }
                      ],
                      "range": [
                        320,
                        353
                      ],
                      "loc": {
                        "start": {
                          "line": 12,
                          "column": 8
                        },
                        "end": {
                          "line": 12,
                          "column": 41
                        }
                      }
                    },
                    "range": [
                      320,
                      354
                    ],
                    "loc": {
                      "start": {
                        "line": 12,
                        "column": 8
                      },
                      "end": {
                        "line": 12,
                        "column": 42
                      }
                    }
                  },
                  {
                    "type": "ExpressionStatement",
                    "expression": {
                      "type": "CallExpression",
                      "callee": {
                        "type": "MemberExpression",
                        "computed": false,
                        "object": {
                          "type": "Super",
                          "range": [
                            364,
                            369
                          ],
                          "loc": {
                            "start": {
                              "line": 13,
                              "column": 8
                            },
                            "end": {
                              "line": 13,
                              "column": 13
                            }
                          }
                        },
                        "property": {
                          "type": "Identifier",
                          "name": "dispatch",
                          "range": [
                            370,
                            378
                          ],
                          "loc": {
                            "start": {
                              "line": 13,
                              "column": 14
                            },
                            "end": {
                              "line": 13,
                              "column": 22
                            }
                          }
                        },
                        "range": [
                          364,
                          378
                        ],
                        "loc": {
                          "start": {
                            "line": 13,
                            "column": 8
                          },
                          "end": {
                            "line": 13,
                            "column": 22
                          }
                        }
                      },
                      "arguments": [
                        {
                          "type": "Identifier",
                          "name": "action",
                          "range": [
                            379,
                            385
                          ],
                          "loc": {
                            "start": {
                              "line": 13,
                              "column": 23
                            },
                            "end": {
                              "line": 13,
                              "column": 29
                            }
                          }
                        }
                      ],
                      "range": [
                        364,
                        386
                      ],
                      "loc": {
                        "start": {
                          "line": 13,
                          "column": 8
                        },
                        "end": {
                          "line": 13,
                          "column": 30
                        }
                      }
                    },
                    "range": [
                      364,
                      387
                    ],
                    "loc": {
                      "start": {
                        "line": 13,
                        "column": 8
                      },
                      "end": {
                        "line": 13,
                        "column": 31
                      }
                    }
                  }
                ],
                "range": [
                  309,
                  394
                ],
                "loc": {
                  "start": {
                    "line": 11,
                    "column": 25
                  },
                  "end": {
                    "line": 14,
                    "column": 5
                  }
                }
              },
              "generator": false,
              "expression": false,
              "range": [
                296,
                394
              ],
              "loc": {
                "start": {
                  "line": 11,
                  "column": 12
                },
                "end": {
                  "line": 14,
                  "column": 5
                }
              }
            },
            "kind": "method",
            "computed": false,
            "range": [
              288,
              394
            ],
            "loc": {
              "start": {
                "line": 11,
                "column": 4
              },
              "end": {
                "line": 14,
                "column": 5
              }
            },
            "leadingComments": [
              {
                "type": "Block",
                "value": "*\r\n     * Dispatched some action (logs this action to console).\r\n     * @param {function} action Action that was dispatch.\r\n     ",
                "range": [
                  149,
                  282
                ],
                "loc": {
                  "start": {
                    "line": 7,
                    "column": 4
                  },
                  "end": {
                    "line": 10,
                    "column": 7
                  }
                }
              }
            ],
            "static": false
          }
        ],
        "range": [
          142,
          397
        ],
        "loc": {
          "start": {
            "line": 6,
            "column": 38
          },
          "end": {
            "line": 15,
            "column": 1
          }
        }
      },
      "range": [
        104,
        397
      ],
      "loc": {
        "start": {
          "line": 6,
          "column": 0
        },
        "end": {
          "line": 15,
          "column": 1
        }
      },
      "leadingComments": [],
      "trailingComments": [],
      "name": "_"
    },
    {
      "type": "Identifier",
      "declaration": {
        "type": "NewExpression",
        "callee": {
          "type": "Identifier",
          "name": "AppDispatcher",
          "range": [
            478,
            491
          ],
          "loc": {
            "start": {
              "line": 20,
              "column": 19
            },
            "end": {
              "line": 20,
              "column": 32
            }
          }
        },
        "arguments": [],
        "range": [
          474,
          493
        ],
        "loc": {
          "start": {
            "line": 20,
            "column": 15
          },
          "end": {
            "line": 20,
            "column": 34
          }
        }
      },
      "range": [
        459,
        494
      ],
      "loc": {
        "start": {
          "line": 20,
          "column": 0
        },
        "end": {
          "line": 20,
          "column": 35
        }
      },
      "leadingComments": [],
      "name": "_",
      "trailingComments": []
    },
    {
      "type": "ExportDefaultDeclaration",
      "declaration": {
        "type": "ClassDeclaration",
        "id": {
          "type": "Identifier",
          "name": "AppDispatcher",
          "range": [
            110,
            123
          ],
          "loc": {
            "start": {
              "line": 6,
              "column": 6
            },
            "end": {
              "line": 6,
              "column": 19
            }
          }
        },
        "superClass": {
          "type": "Identifier",
          "name": "Dispatcher",
          "range": [
            132,
            142
          ],
          "loc": {
            "start": {
              "line": 6,
              "column": 28
            },
            "end": {
              "line": 6,
              "column": 38
            }
          }
        },
        "body": {
          "type": "ClassBody",
          "body": [
            {
              "type": "MethodDefinition",
              "key": {
                "type": "Identifier",
                "name": "dispatch",
                "range": [
                  288,
                  296
                ],
                "loc": {
                  "start": {
                    "line": 11,
                    "column": 4
                  },
                  "end": {
                    "line": 11,
                    "column": 12
                  }
                }
              },
              "value": {
                "type": "FunctionExpression",
                "id": null,
                "params": [
                  {
                    "type": "AssignmentPattern",
                    "left": {
                      "type": "Identifier",
                      "name": "action",
                      "range": [
                        297,
                        303
                      ],
                      "loc": {
                        "start": {
                          "line": 11,
                          "column": 13
                        },
                        "end": {
                          "line": 11,
                          "column": 19
                        }
                      }
                    },
                    "right": {
                      "type": "ObjectExpression",
                      "properties": [],
                      "range": [
                        306,
                        308
                      ],
                      "loc": {
                        "start": {
                          "line": 11,
                          "column": 22
                        },
                        "end": {
                          "line": 11,
                          "column": 24
                        }
                      }
                    },
                    "range": [
                      297,
                      308
                    ],
                    "loc": {
                      "start": {
                        "line": 11,
                        "column": 13
                      },
                      "end": {
                        "line": 11,
                        "column": 24
                      }
                    }
                  }
                ],
                "body": {
                  "type": "BlockStatement",
                  "body": [
                    {
                      "type": "ExpressionStatement",
                      "expression": {
                        "type": "CallExpression",
                        "callee": {
                          "type": "MemberExpression",
                          "computed": false,
                          "object": {
                            "type": "Identifier",
                            "name": "console",
                            "range": [
                              320,
                              327
                            ],
                            "loc": {
                              "start": {
                                "line": 12,
                                "column": 8
                              },
                              "end": {
                                "line": 12,
                                "column": 15
                              }
                            }
                          },
                          "property": {
                            "type": "Identifier",
                            "name": "log",
                            "range": [
                              328,
                              331
                            ],
                            "loc": {
                              "start": {
                                "line": 12,
                                "column": 16
                              },
                              "end": {
                                "line": 12,
                                "column": 19
                              }
                            }
                          },
                          "range": [
                            320,
                            331
                          ],
                          "loc": {
                            "start": {
                              "line": 12,
                              "column": 8
                            },
                            "end": {
                              "line": 12,
                              "column": 19
                            }
                          }
                        },
                        "arguments": [
                          {
                            "type": "Literal",
                            "value": "Dispatched",
                            "raw": "\"Dispatched\"",
                            "range": [
                              332,
                              344
                            ],
                            "loc": {
                              "start": {
                                "line": 12,
                                "column": 20
                              },
                              "end": {
                                "line": 12,
                                "column": 32
                              }
                            }
                          },
                          {
                            "type": "Identifier",
                            "name": "action",
                            "range": [
                              346,
                              352
                            ],
                            "loc": {
                              "start": {
                                "line": 12,
                                "column": 34
                              },
                              "end": {
                                "line": 12,
                                "column": 40
                              }
                            }
                          }
                        ],
                        "range": [
                          320,
                          353
                        ],
                        "loc": {
                          "start": {
                            "line": 12,
                            "column": 8
                          },
                          "end": {
                            "line": 12,
                            "column": 41
                          }
                        }
                      },
                      "range": [
                        320,
                        354
                      ],
                      "loc": {
                        "start": {
                          "line": 12,
                          "column": 8
                        },
                        "end": {
                          "line": 12,
                          "column": 42
                        }
                      }
                    },
                    {
                      "type": "ExpressionStatement",
                      "expression": {
                        "type": "CallExpression",
                        "callee": {
                          "type": "MemberExpression",
                          "computed": false,
                          "object": {
                            "type": "Super",
                            "range": [
                              364,
                              369
                            ],
                            "loc": {
                              "start": {
                                "line": 13,
                                "column": 8
                              },
                              "end": {
                                "line": 13,
                                "column": 13
                              }
                            }
                          },
                          "property": {
                            "type": "Identifier",
                            "name": "dispatch",
                            "range": [
                              370,
                              378
                            ],
                            "loc": {
                              "start": {
                                "line": 13,
                                "column": 14
                              },
                              "end": {
                                "line": 13,
                                "column": 22
                              }
                            }
                          },
                          "range": [
                            364,
                            378
                          ],
                          "loc": {
                            "start": {
                              "line": 13,
                              "column": 8
                            },
                            "end": {
                              "line": 13,
                              "column": 22
                            }
                          }
                        },
                        "arguments": [
                          {
                            "type": "Identifier",
                            "name": "action",
                            "range": [
                              379,
                              385
                            ],
                            "loc": {
                              "start": {
                                "line": 13,
                                "column": 23
                              },
                              "end": {
                                "line": 13,
                                "column": 29
                              }
                            }
                          }
                        ],
                        "range": [
                          364,
                          386
                        ],
                        "loc": {
                          "start": {
                            "line": 13,
                            "column": 8
                          },
                          "end": {
                            "line": 13,
                            "column": 30
                          }
                        }
                      },
                      "range": [
                        364,
                        387
                      ],
                      "loc": {
                        "start": {
                          "line": 13,
                          "column": 8
                        },
                        "end": {
                          "line": 13,
                          "column": 31
                        }
                      }
                    }
                  ],
                  "range": [
                    309,
                    394
                  ],
                  "loc": {
                    "start": {
                      "line": 11,
                      "column": 25
                    },
                    "end": {
                      "line": 14,
                      "column": 5
                    }
                  }
                },
                "generator": false,
                "expression": false,
                "range": [
                  296,
                  394
                ],
                "loc": {
                  "start": {
                    "line": 11,
                    "column": 12
                  },
                  "end": {
                    "line": 14,
                    "column": 5
                  }
                }
              },
              "kind": "method",
              "computed": false,
              "range": [
                288,
                394
              ],
              "loc": {
                "start": {
                  "line": 11,
                  "column": 4
                },
                "end": {
                  "line": 14,
                  "column": 5
                }
              },
              "leadingComments": [
                {
                  "type": "Block",
                  "value": "*\r\n     * Dispatched some action (logs this action to console).\r\n     * @param {function} action Action that was dispatch.\r\n     ",
                  "range": [
                    149,
                    282
                  ],
                  "loc": {
                    "start": {
                      "line": 7,
                      "column": 4
                    },
                    "end": {
                      "line": 10,
                      "column": 7
                    }
                  }
                }
              ],
              "static": false
            }
          ],
          "range": [
            142,
            397
          ],
          "loc": {
            "start": {
              "line": 6,
              "column": 38
            },
            "end": {
              "line": 15,
              "column": 1
            }
          }
        },
        "range": [
          104,
          397
        ],
        "loc": {
          "start": {
            "line": 6,
            "column": 0
          },
          "end": {
            "line": 15,
            "column": 1
          }
        },
        "leadingComments": [
          {
            "type": "Block",
            "value": "*\r\n * Custom app Dispatcher inherited from flux dispatcher.\r\n ",
            "range": [
              36,
              102
            ],
            "loc": {
              "start": {
                "line": 3,
                "column": 0
              },
              "end": {
                "line": 5,
                "column": 3
              }
            }
          }
        ],
        "trailingComments": [
          {
            "type": "Block",
            "value": "*\r\n * Export dispatcher for current application..\r\n ",
            "range": [
              401,
              457
            ],
            "loc": {
              "start": {
                "line": 17,
                "column": 0
              },
              "end": {
                "line": 19,
                "column": 3
              }
            }
          }
        ],
        "__esdoc__pseudo_export": true
      },
      "range": [
        459,
        494
      ],
      "loc": {
        "start": {
          "line": 20,
          "column": 0
        },
        "end": {
          "line": 20,
          "column": 35
        }
      },
      "leadingComments": null
    },
    {
      "type": "ExportDefaultDeclaration",
      "declaration": {
        "type": "VariableDeclaration",
        "kind": "let",
        "loc": {
          "start": {
            "line": 20,
            "column": 0
          },
          "end": {
            "line": 20,
            "column": 35
          }
        },
        "declarations": [
          {
            "type": "VariableDeclarator",
            "id": {
              "type": "Identifier",
              "name": "appDispatcher"
            },
            "init": {
              "type": "NewExpression",
              "callee": {
                "type": "Identifier",
                "name": "AppDispatcher"
              }
            }
          }
        ],
        "leadingComments": [
          {
            "type": "Block",
            "value": "*\r\n * Export dispatcher for current application..\r\n ",
            "range": [
              401,
              457
            ],
            "loc": {
              "start": {
                "line": 17,
                "column": 0
              },
              "end": {
                "line": 19,
                "column": 3
              }
            }
          }
        ],
        "trailingComments": []
      },
      "range": [
        459,
        494
      ],
      "loc": {
        "start": {
          "line": 20,
          "column": 0
        },
        "end": {
          "line": 20,
          "column": 35
        }
      },
      "leadingComments": [
        {
          "type": "Block",
          "value": "*\r\n * Export dispatcher for current application..\r\n ",
          "range": [
            401,
            457
          ],
          "loc": {
            "start": {
              "line": 17,
              "column": 0
            },
            "end": {
              "line": 19,
              "column": 3
            }
          }
        }
      ]
    }
  ],
  "sourceType": "module",
  "range": [
    0,
    494
  ],
  "loc": {
    "start": {
      "line": 1,
      "column": 0
    },
    "end": {
      "line": 20,
      "column": 35
    }
  },
  "comments": [
    {
      "type": "Block",
      "value": "*\r\n * Custom app Dispatcher inherited from flux dispatcher.\r\n ",
      "range": [
        36,
        102
      ],
      "loc": {
        "start": {
          "line": 3,
          "column": 0
        },
        "end": {
          "line": 5,
          "column": 3
        }
      }
    },
    {
      "type": "Block",
      "value": "*\r\n     * Dispatched some action (logs this action to console).\r\n     * @param {function} action Action that was dispatch.\r\n     ",
      "range": [
        149,
        282
      ],
      "loc": {
        "start": {
          "line": 7,
          "column": 4
        },
        "end": {
          "line": 10,
          "column": 7
        }
      }
    },
    {
      "type": "Block",
      "value": "*\r\n * Export dispatcher for current application..\r\n ",
      "range": [
        401,
        457
      ],
      "loc": {
        "start": {
          "line": 17,
          "column": 0
        },
        "end": {
          "line": 19,
          "column": 3
        }
      }
    }
  ]
}